{
  "infrastructure": {
    "tags": [
      "binaries",
      "infrastructure"
    ],
    "path_patterns": [
      "^devtools/yes_wallet"
    ]
  },
  "layer1": {
    "tags": [
      "mempool",
      "p2p",
      "protocol",
      "protocol_cache",
      "protocol_table",
      "stresstest",
      "transaction",
      "transfer",
      "layer1"
    ],
    "path_patterns": [
      "^src/lib_requester",
      "^src/proto_.*/lib_protocol",
      "^src/proto_.*/lib_delegate",
      "^devtools/yes_wallet",
      "^tezt/tests/bootstrap.ml$",
      "^tezt/tests/double_bake.ml$",
      "^tezt/tests/precheck.ml$",
      "^tezt/tests/replace_by_fees.ml$"
    ]
  },
  "tezos2": {
    "tags": [
      "dac",
      "dac_node",
      "vdf",
      "tezos2"
    ],
    "path_patterns": [
      "^src/lib_aplonk",
      "^src/lib_distributed_plonk",
      "^tezt/tests/injector_test.ml$"
    ]
  },
  "etherlink": {
    "tags": [
      "evm",
      "sc_rollup",
      "rollup_node",
      "refutation",
      "commitment",
      "etherlink"
    ],
    "path_patterns": [
      "^tezt/tests/evm_rollup.ml$"
    ]
  }
}
